{
    "createdAt": "Apr 20, 2020 3:36:48 PM",
    "id": 1252154236999172097,
    "text": "RT @AuntyAdaa: Honestly, I don’t like what I hate.",
    "displayTextRangeStart": -1,
    "displayTextRangeEnd": -1,
    "source": "\u003ca href\u003d\"http://twitter.com/download/android\" rel\u003d\"nofollow\"\u003eTwitter for Android\u003c/a\u003e",
    "isTruncated": false,
    "inReplyToStatusId": -1,
    "inReplyToUserId": -1,
    "isFavorited": false,
    "isRetweeted": false,
    "favoriteCount": 0,
    "retweetCount": 0,
    "isPossiblySensitive": false,
    "lang": "en",
    "contributorsIDs": [],
    "retweetedStatus": {
        "createdAt": "Apr 20, 2020 1:58:10 AM",
        "id": 1251948219455754240,
        "text": "Honestly, I don’t like what I hate.",
        "displayTextRangeStart": -1,
        "displayTextRangeEnd": -1,
        "source": "\u003ca href\u003d\"http://twitter.com/download/iphone\" rel\u003d\"nofollow\"\u003eTwitter for iPhone\u003c/a\u003e",
        "isTruncated": false,
        "inReplyToStatusId": -1,
        "inReplyToUserId": -1,
        "isFavorited": false,
        "isRetweeted": false,
        "favoriteCount": 171,
        "retweetCount": 25,
        "isPossiblySensitive": false,
        "lang": "en",
        "contributorsIDs": [],
        "userMentionEntities": [],
        "urlEntities": [],
        "hashtagEntities": [],
        "mediaEntities": [],
        "symbolEntities": [],
        "currentUserRetweetId": -1,
        "user": {
            "id": 847285262,
            "name": "AUNTY ADA",
            "screenName": "AuntyAdaa",
            "location": "Nigeria",
            "description": "AuntyAdaa@gmail.com",
            "descriptionURLEntities": [],
            "isContributorsEnabled": false,
            "profileImageUrl": "http://pbs.twimg.com/profile_images/1250220619616190466/peJVlRD8_normal.jpg",
            "profileImageUrlHttps": "https://pbs.twimg.com/profile_images/1250220619616190466/peJVlRD8_normal.jpg",
            "isDefaultProfileImage": false,
            "isProtected": false,
            "followersCount": 199651,
            "profileBackgroundColor": "C0DEED",
            "profileTextColor": "333333",
            "profileLinkColor": "1DA1F2",
            "profileSidebarFillColor": "DDEEF6",
            "profileSidebarBorderColor": "C0DEED",
            "profileUseBackgroundImage": true,
            "isDefaultProfile": true,
            "showAllInlineMedia": false,
            "friendsCount": 3969,
            "createdAt": "Sep 26, 2012 7:07:26 PM",
            "favouritesCount": 2925,
            "utcOffset": -1,
            "profileBackgroundImageUrl": "http://abs.twimg.com/images/themes/theme1/bg.png",
            "profileBackgroundImageUrlHttps": "https://abs.twimg.com/images/themes/theme1/bg.png",
            "profileBannerImageUrl": "https://pbs.twimg.com/profile_banners/847285262/1583932777",
            "profileBackgroundTiled": false,
            "statusesCount": 188697,
            "isGeoEnabled": true,
            "isVerified": false,
            "translator": false,
            "listedCount": 177,
            "isFollowRequestSent": false
        },
        "quotedStatusId": -1
    },
    "userMentionEntities": [
        {
            "name": "AUNTY ADA",
            "screenName": "AuntyAdaa",
            "id": 847285262,
            "start": 3,
            "end": 13
        }
    ],
    "urlEntities": [],
    "hashtagEntities": [],
    "mediaEntities": [],
    "symbolEntities": [],
    "currentUserRetweetId": -1,
    "user": {
        "id": 755898751,
        "name": "phisayoR",
        "screenName": "Iam_LolaVolcan",
        "location": "Lagos, Nigeria",
        "description": "A sunshine In a bottle that is made of Magic!",
        "descriptionURLEntities": [],
        "isContributorsEnabled": false,
        "profileImageUrl": "http://pbs.twimg.com/profile_images/1136701242145746944/k1bvFZBY_normal.jpg",
        "profileImageUrlHttps": "https://pbs.twimg.com/profile_images/1136701242145746944/k1bvFZBY_normal.jpg",
        "isDefaultProfileImage": false,
        "isProtected": false,
        "followersCount": 684,
        "profileBackgroundColor": "000000",
        "profileTextColor": "000000",
        "profileLinkColor": "1B95E0",
        "profileSidebarFillColor": "000000",
        "profileSidebarBorderColor": "000000",
        "profileUseBackgroundImage": false,
        "isDefaultProfile": false,
        "showAllInlineMedia": false,
        "friendsCount": 1352,
        "createdAt": "Aug 14, 2012 4:49:33 AM",
        "favouritesCount": 4513,
        "utcOffset": -1,
        "profileBackgroundImageUrl": "http://abs.twimg.com/images/themes/theme8/bg.gif",
        "profileBackgroundImageUrlHttps": "https://abs.twimg.com/images/themes/theme8/bg.gif",
        "profileBannerImageUrl": "https://pbs.twimg.com/profile_banners/755898751/1559845591",
        "profileBackgroundTiled": false,
        "statusesCount": 3046,
        "isGeoEnabled": false,
        "isVerified": false,
        "translator": false,
        "listedCount": 0,
        "isFollowRequestSent": false
    },
    "quotedStatusId": -1
}