3.295692106175078 0.852020073339903
3.198076485462072 -0.24117739842132857
3.652260976893148 0.3197328926380598
3.53962169807139 0.2498583335507864
2.8883295507271214 0.7450044401054061
3.4954042969001202 -0.6001729332897254
3.3624678395926044 -0.07676306714900291
3.432962897281351 -0.4422928606095281
2.820058826906744 0.07712304967887762
3.4714090618151983 -0.6923300642285726
2.6815361601713263 -0.1039915182415947
4.009461488513712 -0.35329659585960793
3.189401463555839 -0.3112727609647192
3.1267274936775644 0.4171197887895056
4.20016454424712 0.1494719142953551
3.2345772817738694 -0.25151292860016516
2.233415502221891 0.39404987917077405
3.6300122753199107 -0.4958484019358891
3.318577653929092 0.45702462210434835
3.551360957739937 0.48767222776022057
3.480948071518055 -0.2495691827099887
3.647470305849688 -0.23030829702384376
3.742950842150215 0.4922306399974481
3.5931049573254072 -0.7834912268203847
3.2387790467340287 0.7087903188258194
3.225420400423851 -1.001877671607631
3.2775728057198834 -0.8041656165037778
3.3910826801453964 -0.15546863241232772
4.015596130797429 0.12162057129791481
3.652783793667127 -0.3822590663455856
3.1373938218080406 -0.43444602088928286
3.479455739882813 -0.7989575361259879
3.3912500138451076 -0.8114168720846129
3.718607452953384 -0.1205240971027163
3.0822543770665796 -0.27520048301968325
3.1676928439569356 -0.03381732238087065
3.5784405226043514 -0.4324007310014173
3.6915213009136116 -0.2873336179277449
3.6605873365572137 0.49588030884977985
2.9704453806960665 0.019487501389597317
2.9492360358972003 0.33943255556587415
3.396295499290859 0.07205127963761454
3.459965553399656 -0.14894205123060156
3.812597476742832 -0.8476468721909354
2.524465225367495 -0.08242524704832771
3.33705074799362 -0.374461380937273
3.5875494774496453 -0.2436127372576406
2.8651342460182434 0.08677381305726628
3.71959303415289 -0.20824666702018502
3.0681364413503727 0.4339852984222774
3.981052840763351 -0.11645334369000768
3.827177144020391 -0.5443234469413925
2.9672955515229718 0.3699502004680618
3.622300242314657 0.20756171126594458
3.217068345480823 0.5494388622939418
3.125232773004681 0.30313016569021
3.7575278045475415 -0.7915874999520405
3.0799894801520806 0.4851531887416821
3.531982519241936 0.5240221944093147
2.8179358764303486 -0.21303794766670064
3.745351639533742 -1.419848484127669
3.171225709398123 -0.49284103989070904
3.6054597929464975 0.1353491960544223
3.089337931397935 0.2379780852644951
2.8897446261500463 0.6127031472595169
2.9413185305752734 0.307336054886483
3.1616406882287 0.051170518955821365
3.6218830287398776 0.045703793634635226
3.581330958542639 -0.8059192131333903
3.5754014116872868 -0.28209385470902015
2.9946135426640454 1.2011453984557265
2.896851302316092 0.054217872301591086
3.5223056916840934 -0.28741016880119713
2.8766941764264287 0.48388922110051724
3.283424714231654 -0.9434885268558827
3.6559022111547446 -0.850928811956518
3.8148499866622547 -0.7639150512375196
4.258690666331993 -0.9044671463745295
3.737326014199689 -0.4515196092314147
4.0247547873340075 -0.7653898959587389
3.05110936292095 0.32303751538714176
3.0169419432266498 0.4480490335963484
3.6526822893553748 0.06040247452632325
3.5311585605763502 0.2597751381677165
2.58126875966909 -0.41197419988420103
3.6191265445187404 -0.22031548320448896
3.9093764107182345 -0.543950500557969
3.2628192474055067 -0.2973270722612197
2.5448287778729237 -0.27854090519352975
3.487786569215933 -0.6798144771269117
3.1472989819856103 0.3861906584410416
3.593692760711504 -0.731081133283639
3.3670550417014766 -0.6196972745592161
3.612856379000095 -0.7951481542228884
3.2829528350083153 0.24387368985284474
3.6808487702757318 0.38067371802410777
3.500376100510284 -0.3474126805759914
3.460834600065347 -0.07878258951594333
3.6755934132037176 0.1555269539484162
3.227679943119469 -0.14334915686542318
3.056596047721631 0.11286072836254107
3.0733181474354816 -0.10445681852618553
3.014109471912812 -0.1613694893025477
3.2002902896520817 -0.33298454395889604
3.3798391501341154 0.11013403722658999
2.9645242796086206 0.0353816216947061
3.336697742663607 -0.0455998249131187
3.767838976494378 -0.6805672075436822
3.4112478816389618 0.5259812883676117
3.0619523165794877 -0.3698268435314578
2.924405360426514 0.34493429120754826
3.3523096022453425 -0.4293611474035114
3.0046114146273095 -0.14006705861416266
3.951584826221035 -0.22446552302530473
3.5494936741042094 0.10557080910634797
3.7988692894092884 -0.9511301993506643
3.614714894349523 -0.7062680719492492
3.881038388149026 0.5229660184292735
3.5130082675360934 -0.014757893135368544
3.316002396577401 -0.6163801089398826
3.0261159363797434 0.15099309093095775
3.3835953741359335 -0.6492952879467975
3.275496411520921 0.36157069508585093
3.139052129788259 -0.4866912238137324
2.665611141379926 -0.3216072165038072
3.456214814635177 -0.6348334561771666
3.5447613773663993 -0.14698807575570055
3.45646887026543 -0.28801303935604283
3.891262495917957 -0.6144311348259757
3.4611044684958165 -0.533371207812616
3.369208484112663 -0.017298886985808892
3.2443083826274473 -0.3086212622920055
2.788981597895388 -0.06781521051410849
3.087521100482157 -0.23127145659676743
3.6929455411824867 -0.24154727899577172
3.3539690020963904 -0.39249189563972176
3.7115183582924822 -0.3450992430856008
3.1002562404112 -0.42495260757571485
3.4324503103229693 -0.38359596510276095
3.349508133977935 0.48457761394245924
3.0123035838501275 0.14166019688786707
3.870406399059398 -0.5771284322293644
3.5555937577346777 -0.7552391507891281
2.9222372848706746 -0.09718900132535979
3.133946980592046 -0.5189560623336912
3.781828232693436 0.3583358694580814
3.073747013641809 0.4008774779665095
3.3458053531783065 0.24967303642595523
3.1553290095627524 -0.4791495776101976
3.3882460004315673 -0.5739170047240574
3.7105802251032767 -0.05378983690987829
4.132560780066912 -0.1432766689178953
3.6829180631587883 -0.20315583890797442
3.082521986700926 -0.05339383361373534
3.229113709194232 -0.0388605752293078
2.826394522781418 0.2744608572993077
3.3175646351307275 -0.32980622934424175
3.2520493037516593 0.2143968738560953
3.141451739323432 -0.09113249294601468
3.693703335032436 -0.35233819888764945
3.081023888808242 0.7175169115575243
3.788829838196854 -0.3390420931068162
3.8402230923044405 0.046546221522012377
3.342818378372911 0.16067213928425939
3.3410890361006746 -0.11301936491876972
3.4666316646710755 0.08449884286872278
3.2171140341835236 -0.1906347834488492
2.856345898407229 0.4239396551707064
3.229986909285609 -0.17926956015916157
4.123691612803136 0.26236439388274563
3.9992541221589555 -0.5051506939472983
3.2032578053462153 -0.9649616469108181
3.5830960679792603 -0.14911702505277252
2.9882923627174143 0.10453923608384946
3.7333965355078567 -1.0320414363601653
3.7481291577365248 0.029134771442078433
3.4654800560064554 0.19692694796476862
3.0345261063018967 0.0850775763334114
2.9450423121782303 0.36873865582161813
3.502610057177126 -0.23323271558707231
3.0198771225740217 0.11423267192689662
3.9124529660636367 -0.49997155420680656
3.0482032678477173 0.023180228872019815
3.515999676084773 0.4433247054384236
3.763937825989235 -0.6559789995423586
3.6696620216994877 -0.3710630373736021
3.194687583865381 -0.047184545543379974
3.2338822244050944 -0.010394281938247207
3.949919943689231 -0.5999303647360372
3.3375527401841905 -0.6426691621515292
2.7265423907834716 -0.2666281987934496
2.6977203395884244 -0.10530978367288668
3.905470387403641 0.11506452994262711
3.0883396414781004 0.3451685340697831
3.072767544880301 -0.18110700759139914
3.1250266552075274 -0.28947358359318975
3.0015042042397186 0.1836667666042503
3.885138976537049 -0.579997645980646
3.2749886640147485 -0.42597963259795474
3.2839988449222637 -0.8149127846261102
3.2953217719663006 0.11444643118047654
3.411285923362606 -0.03330610228297215
3.403782850524235 0.005007881485653204
3.345790357946181 0.27310768780584266
3.485179717067879 -0.45571882922899004
2.7132776776759586 -0.6759123850043097
3.3823448390160227 0.34726235652134985
3.3992432765372573 -0.22830805467506973
3.5383061943877516 -0.024971026466254792
3.652903069361531 -0.747760016924816
3.0027882812987756 0.14019265820297971
3.345083697363848 -0.9912825822735082
3.0163971138243633 -0.40543901991112086
3.0630012244520137 -0.044889691779090635
3.3802313220868943 -0.09269414872788409
3.6509124416547882 -0.9760531157260968
2.93282288808748 -0.5967865938235165
3.862802857730622 -0.49185511418264277
2.8741746586283536 -0.3000064936711518
2.8601189253241266 0.5946164970189362
3.3870178263630537 0.2216100333786471
3.2717724490338713 -0.6013059442587034
3.1847230087935343 0.5290117396462015
3.8918509594997692 -0.876166883421463
3.3700177546629297 -0.21940908077650623
3.1735220834198254 0.1850931970724039
3.1725258673373924 -0.010996142225000088
3.1964093559865283 -0.5493887945083167
3.8520869678532694 -0.26698902180110606
3.078891569379167 -0.33504115547803937
3.1780834072572666 -0.2889672753581598
3.50163591172741 0.39111378706534417
3.4253361010390115 -0.3464984383614541
2.922445155589431 -0.1105470681648531
2.869071607664814 0.4216917064542792
3.0587869562859265 0.045130567792895065
3.298490675733707 -0.3826193959114882
3.3676303502365688 -0.06734392447798768
3.3846502431781085 0.3097508563329848
3.192420781136464 0.024231886835246186
3.2066624556054464 -0.29359278481255674
3.6220716082228925 -0.3701271031042918
4.336525676878847 -0.3362213006640494
3.642728030584555 -0.8244995279748619
3.127295190112644 0.10681083143895481
3.2141452853020493 0.7222168145239157
3.660981200601586 -0.7644790254037306
3.4223159964760717 0.061050212705243745
3.1619183401317303 -0.4887346086012989
3.146465117917071 0.024020696220517612
3.8370667097333855 -0.7084656849377069
3.0507345819736846 0.1352684591862957
3.164052768529097 -0.9223954749606923
3.4853868919981097 -0.37728576102834754
2.795542184671148 -0.32130159227977706
2.982747041067157 -0.4000842010380772
3.4201951307700975 0.32188027511651907
4.5021752615622255 -0.7634885714520865
3.0492161630642025 0.17050427840198124
3.753604257062166 0.2524362615813977
3.5275494552519997 -0.477320709472903
3.4667930217029177 -0.12575396279852152
3.1340107373327575 -0.540960163334441
3.355493173527806 -0.14114966247887087
3.460454225054656 -0.10473371097049823
3.9872794792086754 -0.6904866646525523
3.5388891329082908 0.36961446615431537
2.935857480031328 0.04776114899900852
3.362381336430202 0.002014428128495005
2.833308573396575 0.2863297442090371
3.4530108536214796 -0.9126438357559824
3.2445280736415443 -1.4641623930790704
3.491562904302552 -0.5866576930076693
2.979695981043995 0.6918756035274436
2.98270184913145 0.29828615270152997
2.8603502053112217 -0.09095282547842085
2.9746946337597704 -0.32541592746505155
3.43787830561575 -0.4718766843550109
3.8743305220654474 -0.5595235844084352
2.5886496762923206 0.3068279710764823
3.2238344096531004 -0.3298670800257119
3.31129440544008 0.29433431272358934
4.029151731529872 -1.3456744014094697
3.335848063649947 -0.3733015326147055
3.3614038154555743 -0.26306335819027427
2.7573305339137724 0.32696393796197887
3.77109857287661 0.16687384665136262
3.272229369324202 0.18552839336418847
3.1404708627069393 -0.39761170566843107
2.991352931116089 -0.2412302841005443
-2.2035865357155346 4.265824359740529
-2.710262011175096 3.224538266707023
-2.254876000017387 4.3065485751712265
-2.269012152583164 3.8684355833232993
-2.1272858244481228 4.544635200505548
-1.9402673624311204 4.283456848302146
-2.4374251004920073 3.2974138452213726
-1.9056135352055552 3.9803248204605906
-1.652228969394311 4.91871083831331
-3.075998850495912 2.91950851419084
-2.4354620536379943 3.9483189427624756
-2.297948356659597 3.6806874053139196
-1.699567319605334 4.688967908062214
-2.323606657461245 4.106203425912307
-1.9520813108533168 4.137860402715905
-2.1734922889405865 3.7547938631616793
-2.4022077363375915 4.2849893461215744
-2.4046520633100164 3.7244313275747647
-2.3352093689631928 4.534841575489063
-2.20458398990302 3.8470819373262612
-1.8210957138702577 4.062912001356401
-1.6106692981855544 4.257930925888393
-2.1723202519793112 4.2713434341926115
-2.23652304850307 3.733712369582329
-2.4319172451181323 3.5298276880668533
-2.2730437880471843 3.9148177938669995
-2.1492214657339117 4.066116388369987
-2.029162591471898 3.5677811295617
-2.3470331744383373 3.9268005382693234
-2.473613097588851 4.126886974268229
-2.398902413466223 3.787288843811709
-2.250975698174437 3.874305625786925
-1.4633636141329185 4.444973338651088
-2.473583669220349 3.613956489988567
-2.68026943164886 3.5551257865320776
-2.3583973566388337 4.136536544311951
-2.0915149970608304 3.4607277824745832
-2.6812203393588363 3.390619969260786
-2.201250395694254 4.075870503272009
-2.2987624838185527 3.5313007581926783
-2.272909665963801 4.08957729395649
-2.11104557700093 4.322481309211415
-2.3620030383228316 3.9892149294540626
-2.682262703117734 3.644865610423196
-2.398568770019791 3.740567070883194
-2.375020296723821 4.086675926425148
-2.625220370907498 3.830751947381233
-2.202433795760944 4.530321232809663
-2.028365321058739 4.014063538014059
-2.0732601774240944 4.261757042254624
-2.506942586851939 3.987897024179454
-2.300719053841627 3.9741774635840863
-2.195065761283215 3.568787674176798
-2.374702401746169 4.1309252872774165
-1.9952105699699123 4.5516724939326085
-1.8813241643076668 4.057312414121
-2.4757190850452155 3.5339563857046175
-2.637698844384762 3.1687273672958325
-2.4919416739104063 3.318431358493093
-1.9298213858587672 4.475620497130768
-2.2235416441540887 4.38330370637836
-2.3560921063788536 3.55946601411872
-1.8405443259956062 4.009438751203332
-1.987820454715731 3.9172564067793383
-2.562531891440804 3.875187827174147
-2.150670221570695 3.872767909329208
-2.0644187191857952 4.221466339106573
-2.4785731907955704 3.657104607542025
-2.256433792296671 3.573323025806334
-2.6236043649673184 3.8685870628398593
-2.791317653699011 3.375430766687114
-2.416904400753799 3.4541913259241284
-1.7737203307372422 4.460031927770322
-2.0005656924696558 3.7764894121670314
-2.652040440811733 3.409766738967013
-2.255752568788184 4.025809389540296
-1.899257473214194 3.2397327009613655
-1.9192744544688094 4.274398213247603
-2.554211129453951 3.10831435684471
-1.7327458220722658 3.8393352034601476
-2.393315251663985 3.9592511698845647
-2.4467099575916955 3.35752329548478
-2.5070970030153044 3.223152270387744
-2.7872968858153957 3.088238784691084
-2.2402021850273504 3.8477545312421957
-2.1952330235467303 3.9518011373878768
-2.3875939362175242 3.3580392306360194
-2.246513645989239 3.618644807758303
-2.1897417865865667 4.028504804149264
-2.2825022382963254 3.744968800348737
-2.2929722107919503 3.889587349586091
-2.1347580667893116 3.8399904539483494
-2.177094631957617 4.410283997145411
-1.4802381450556834 4.88457846534198
-2.6328919982527967 3.728093197756686
-1.6809640797042567 4.831085020724979
-2.187157553481502 4.232354613276191
-2.1352262556501502 3.9976008978511404
-2.1194283760638717 3.9566128175460187
-1.8322249356889422 4.218580750435809
-2.5717033109640033 3.439397269538837
-2.53016418516766 3.7710518106244937
-2.5766614286755267 3.5417966770833313
-2.2267731060425633 3.5577591519088108
-2.957422324831438 3.480898964340046
-1.5794397456679208 4.875492566147769
-2.5803277252291132 4.124313530194113
-2.5851817463473257 3.471667738169831
-2.581568467107399 3.428307259453442
-2.5088603133102594 4.03409134632513
-1.3801330304234614 5.179635191493904
-1.894223314633324 4.164743031965282
-2.1670664418459076 3.691740219304208
-2.624657724591653 3.520422421440386
-2.3400176151404573 3.4497530685735103
-2.095070633917342 3.57732284621147
-1.9561187001686875 4.702674807011999
-2.11132989706206 2.781080323217582
-2.6118918776495286 3.712780151318055
-2.269727552059749 3.2839599252742993
-2.2641619309265666 3.842225419862887
-2.076497388893212 3.9807469494312264
-1.7453631257975786 4.318233588917507
-2.3687517500340967 4.312419026158252
-2.0923955058169357 4.457872479339498
-1.7547981941803605 4.99319404119081
-1.4380598592085763 4.274675945882565
-2.0576760933019274 4.00607836400015
-2.1681485999799732 3.753204224549608
-2.0638309581031304 4.28561175144714
-2.5443945523845994 3.888912030907102
-2.4783564655433152 3.7983115953319317
-1.8791505775677029 3.6133065791537557
-2.4914649744510062 3.5197422272152394
-2.525870874310205 3.815161633542013
-2.245412569304761 3.096534974680493
-1.9181672884090415 4.283893881714685
-2.205913410313095 4.31342568736315
-1.7772684299522015 3.9168861621026103
-1.625230885023683 4.665962574206895
-2.33194293435752 4.1169424104288534
-2.1724790062426 3.93020693007191
-1.8207517486295262 4.5257860046121605
-1.9162777991566018 4.388902667534561
-2.5241269643838393 3.7914503248034532
-2.1850668504786337 3.672294820619876
-1.7983165546060398 4.347902642335474
-2.2111126450333902 4.24505432216725
-1.985808090737743 4.52486326733033
-2.2296029380013436 3.976944006548569
-1.4125360726163916 4.20447222203815
-2.744807627922066 3.550303708423378
-2.039148298767871 4.283366622647572
-2.668387981397102 3.224907358668043
-2.2914295916839644 3.972953256565513
-2.305725192593794 4.104443973162908
-1.964400991826406 4.192479723726639
-1.9890281750002117 4.298219959655053
-2.0584820588474773 3.633096380308426
-1.9405807976901572 3.968437820402699
-2.536217554740448 3.457619778282596
-2.3432489642902126 3.7043223034789143
-2.166564106382723 4.542035625127035
-1.625602977168326 4.634472458638144
-1.576642271335281 5.195964345528198
-1.9511879264329228 4.141479932413981
-2.736708936038964 3.7948949977689637
-2.431321511458261 3.4926493058198833
-2.5028917656170298 3.7506071976103494
-1.6051288511221742 4.4797363703332165
-1.690192066205976 4.6641838576880446
-2.8159199098162 3.185036904293623
-2.4672326218742353 3.723532778497799
-2.7411860346028076 2.9860143087708986
-2.4769579519563285 3.588427688790825
-2.389330142930907 3.8681158685699644
-1.8053344218325362 4.007021981306184
-2.557150444302372 3.6358272704278654
-2.2512397540775777 3.544412306275879
-2.05188147922727 4.24638595900652
-1.7621660367482854 3.9832136939369898
-1.9990756198191668 3.955847100664932
-2.6786882681643793 3.623009082003935
-1.9315916386185363 4.022435994429903
-2.26530071926105 3.815067019144601
-1.9212431264600718 4.555143755080176
-2.4824483126651136 3.600577717416404
-2.4691919449280935 3.7823191766618907
-2.77328806208481 3.2269288679095336
-2.9378047933786555 3.4048242188688773
-2.248422525626631 4.057301690354773
-2.2816111838011417 3.800636271363454
-2.5445899320674323 3.9235289262281143
-2.419638566712466 3.397586973843749
-2.353198770884027 4.111768571757034
-2.429890865608094 4.094074592428966
-2.1073283381655075 3.6059930333659924
-2.1246392385890887 3.676274566205396
-2.3034993967103294 3.742013049061593
-2.0832352134307413 3.748566581417381
-2.250770335548792 4.138702815619276
-2.6875664331192604 3.568143875210838
-2.227850456653503 4.345555832929052
-2.5927356626197766 3.3401820523259405
-2.127689490295633 3.663806072041465
-2.312391087631982 3.812209673466449
-2.296054117552911 3.5924634774386917
-1.9921717037571485 4.203867386116526
-2.3952443099994016 3.9994307729651437
-2.3174030482495174 3.837665959959973
-2.4025274291632823 3.946312086015457
-2.6087897378999334 3.1500348596258947
-2.5568324124036677 3.597549278976962
-2.2956283084037996 3.535986560987107
-2.567895718678274 3.3078387267855676
-2.105818839995029 4.164968489563051
-2.7767259799674084 3.524479121342833
-1.9220588363322586 4.199290014173476
-2.4963720251703316 4.371059920193246
-1.6438968994458065 4.727133513162431
-1.9708721981296573 4.219901047549368
-1.9639738296787783 4.164874764864643
-2.728527072029552 3.54654326531575
-1.4713868771388898 4.814887146293772
-2.319839360761637 3.6254848656491636
-2.0000033642197335 3.81426780719668
-2.177064171874693 3.3874143933062633
-2.560984120686111 3.857114510432291
-2.408916898248666 3.9485595420646455
-3.02378151654049 2.8529700308962678
-3.0669068779238997 3.492409609507499
-2.1169956608382328 4.525041556241287
-2.37111424768564 3.765125368173845
-1.9850454580813417 3.7656300881132903
-1.896373955162047 3.975259010485538
-2.2653620277505437 3.444186977947142
-2.33718922229648 4.274525819612368
-1.9913989039982156 3.989994568605731
-1.994941555581556 3.713258017833123
-1.9267792990545303 3.757997082251643
-1.9357799673298988 4.507180215661937
-2.8020451174706045 3.2313544181108593
-1.9355951595830407 4.4273162317066435
-1.8017284122539925 4.211721578388842
-2.761873902516368 3.3442777278273046
-1.819671350468099 4.585670524072633
-2.134526142260899 3.7199297858675324
-2.411565287049737 3.8330977007891995
-1.8324995817353575 4.610667100645053
-1.9512224069144262 4.0204936672765665
-2.2191606959201606 3.963783918833971
-2.406697210008171 3.3917572026398943
-2.3213201130237193 3.43094941662038
-1.7634611879937214 3.88730248178238
-2.1835775951177987 3.8717188650007137
-2.5574733233123115 3.5724706828093846
-1.7903117131806006 4.133205632929708
-2.436558196047783 3.6919874929794103
-1.578893371584032 4.607179928060365
-2.413864128462472 3.5737656734384338
-2.5449912278343887 4.201583354313381
-2.5672600412400928 3.0023901313030983
-2.730614098197129 3.7288172482358526
-1.7122552506801643 4.346665374333415
-2.038350607968606 4.088338848656013
-2.184717448613112 4.187062112994263
-2.0749742742429813 3.8019265424674047
-2.3567158908881387 3.700749288581229
-2.080331235454063 4.00244716142474
-2.4372322642930935 3.6806867527920586
-2.8118588286265065 3.5759151094653037
-2.0817984871365898 3.9818160487901655
-1.8268105279426 4.292156548010296
-2.7308662213466466 3.0334684578344175
-2.636438127072897 3.0867765854259592
-2.7605788289811652 3.6140905339579956
-1.6324578756279586 4.518901334744555
-2.38705383654014 4.16182012232846
-2.2408467281949194 4.1923806941838135
-1.332668828130617 5.1892106654350005
-2.004277532495501 4.179804394504739
-1.9342813121293265 4.0040689006838965
-1.8343857620236383 3.822243597524081
-2.45161587281754 3.918176502011583
-2.281454219715173 4.2868112255853665
-2.0700255185728356 3.936793774879495
-2.358602200325127 3.1260507433809863
-2.332148214196053 3.92928180611604
-1.7226205158997725 4.3817436260352824
-2.365703546244043 4.018661799254218
1.3446415591435879 1.1459422807842743
1.6276702173461415 1.6458951301728493
0.9244679990133661 1.6023317999473106
1.1212241045308033 1.6268364109791442
1.2087732393377677 1.7131951805617152
1.4000017374793312 1.233639160792381
1.4134845974301635 1.2679976594417204
1.358481035944053 1.846294367723696
1.952612237601389 1.3477166186894567
1.7012283103536716 1.586657351368129
0.9103418759198172 1.983199343383745
1.3674496666293594 1.3282563339847073
1.6832066738346463 0.9293622582337089
0.9149994894743573 1.2773136785715442
1.179758469216777 1.2471749771200618
1.2718933932225431 1.517025129077992
1.3471626200871267 0.7825332560430213
1.2270114267059775 0.9699342482710993
1.5852735501511421 1.2822204111124311
1.226728320112036 1.4860779483499413
1.3654922988726528 1.7770514821547363
1.43158807115904 1.5863333240502053
1.3566093339625582 1.0676651486616136
0.7189210362655004 1.3132642929519238
1.7593754534126433 1.3897045672715345
1.479254189423496 0.9845347584433042
1.0701539071951487 1.460580233251966
1.7948279290563642 1.6968709722218769
1.6666667804966198 1.034667032657064
1.153112337530293 1.1641946124213693
1.1225560828100558 1.7022995243750318
1.572938695187498 1.5714745100061984
1.1905857681385694 1.5791671450492704
1.3013704151170766 1.2618367962512917
1.1127072054449967 0.7362885314384205
0.8076164400214141 1.2246832770455722
1.64973196258997 1.7874660438304146
1.487507866906413 1.3502092445098954
1.72748548513518 0.970006924064849
1.3803102008608767 1.4783368412282825
2.0195993299495134 1.1002396084752082
1.8210551215354382 1.6073578129672206
1.7058345838581628 1.5255075165708147
1.3534306703026882 1.2882525143498336
1.4626086729115195 1.3495840840553457
1.331792489488948 1.4739997001891534
1.08481523938482 0.9496301302670516
1.572133383744633 1.5266625192779808
1.8073275046522093 1.1019939630467541
1.7030410043990019 1.305859912723244
1.5904719210356721 1.3589059702672348
1.524546730762367 1.2448970682212022
1.3407613409512236 1.1540753059145503
1.2342294934533604 1.1193014653940254
1.4637070427867802 1.7638034380195036
1.1199195661772166 1.2801845252697908
1.1841354062163545 0.881717509292274
1.5391185249191672 1.270700624568461
1.2524481092626898 1.021431839168557
1.386429485978655 1.2404102098758683
1.2156390233001406 1.5293921364063339
0.7977789728495185 1.1038961658458206
1.1961863224012623 1.1018711308492064
1.5282244524294486 1.6032471012846408
1.6512725662556083 1.667461422163033
1.4394581387488052 1.0354412251757446
1.4436870784324651 1.1335848453219093
1.8749558632091814 1.4432544424008071
1.7180703155736996 1.1500476539530489
1.255545409414679 1.635624492764141
1.4731443947179554 1.5037609616717107
2.0027783402372 0.44565703586156535
1.7880346308610742 1.6205111304500683
1.6353207392972104 1.407095583777967
1.9298835619196826 1.7329144648140795
1.3779802605225313 1.1768055043826946
1.2662183376792973 1.417172639109984
1.5186886487383147 1.8145748981640701
1.2350527752372369 1.1218053555033871
1.1929964827923802 1.3510344438669124
1.031323119307119 1.2649644838486953
1.7599427776694188 1.4063163641070777
1.369535611474414 1.246645495059905
1.77882252969977 1.480822333189883
1.4994769921725826 1.7344437446752075
2.0535868296337894 1.4357177865415025
1.1257872571118561 1.6757950515054003
1.9790525374349488 1.3840292997634023
1.3294660970718923 1.2212154554349077
1.3801009578856385 1.3953539707234834
1.7412023388316769 1.3731562090165352
1.3468886717121418 1.4242727858268396
1.7689308707693503 1.3079755788181726
0.9172688562633702 1.687380512681169
1.0345566748638604 1.405598992377382
1.2071495537029884 1.0725348846136924
1.0922269432549392 1.5438837906514278
1.3708491668126188 1.0373449109402686
2.1756749982770884 1.2344800101419546
1.6283016927806582 1.227411841747425
1.205782325599202 1.4018594165428107
1.631953516868408 1.404454350639472
0.854619396962656 1.6564636113850573
1.5069448254625475 1.6258224681872582
1.9885875542634304 1.5086592007443487
1.609979014951007 1.5861919062962353
1.1618684778231685 1.3621865983900279
1.4344419864625093 1.3781505993803969
1.4079889669197 1.6799646883684074
1.6810831265032555 1.1761200065261095
2.057604495422113 1.2047424596507352
1.0865653525547954 1.5166546248739237
0.9755266484930898 1.2926442634848547
1.4523190135929478 1.0021804394524927
1.5442480954566287 1.1917564628820188
1.4524739426381306 1.0780051151735355
1.46548970491915 1.6029593864305918
1.232609571084744 0.8916783042068055
1.971453030052619 1.3785766956062777
1.9091970449236266 1.6840385670411722
1.159001398571523 0.9635489474235245
1.3786031019015637 1.4156673337096934
1.0395270972930937 1.0602222254621856
1.8961125213184085 1.269584310306801
2.151570692441072 1.3671935971332008
1.7405410381669768 1.3194101374552776
0.8471321583886428 1.037558188611757
1.6553369310083013 1.4780047419122644
1.3850146969498043 1.6105020260418819
1.3596697134263547 1.140121723385522
1.1101365883336896 1.2499935835072356
1.3794450266754896 0.8738728608646167
1.3887748162006668 1.6472191345487561
1.2504170949135969 1.0973194901012309
1.6944388091850182 1.3756656802409946
1.5685670997225194 1.3073962367032224
1.8354444964055534 1.6257675242564429
1.5670542175986326 0.41451670333220014
1.640287210150754 1.8031644405486287
1.523020496890626 1.6599489341105123
1.3300596471859696 0.8795863567599888
1.5436046084571124 1.669509349122018
1.394340383567781 2.017880714539358
1.4278341764248001 1.511889241894572
1.6084650156921072 1.8224640228920475
1.1976757044057122 1.634089949487949
1.196756625166349 1.39876045258994
1.6265144299866077 1.5901803617343682
0.626853257513972 1.4747333678173074
1.3203772424232763 1.4434819428524555
1.9168264884222523 1.5377394492884842
1.768310145841049 1.0718799148554887
1.3778569083017294 1.3748122060312777
1.5298255436767116 1.3575780633958467
1.7043631166173447 1.0105639513653524
1.3019140641283822 1.6041312230466114
1.872465740730456 1.095371804210357
1.4188396769253375 1.1933997681425212
1.5904393040939961 1.0470640355564145
1.2809537299953395 1.1100193989853722
1.6653444845684877 1.7822328524772435
1.3524704026237537 1.2462174155907164
1.47005499061134 1.2669965856581058
1.4259136304191824 1.434901199045639
1.541246704514591 1.2481704116431718
1.4106377086655892 1.1235376545105236
1.314173516718129 1.246694055808251
1.506953612962163 1.4079312815299272
1.8146659306126014 1.819456188222392
1.5277636526366516 1.4313777616167085
2.0340643486962713 1.5637455070054438
2.1142818470948646 1.2647538438706778
1.4484784661453123 1.6536033310532505
1.5358497985264885 1.3071904418255629
1.6910998646184385 1.752225790612076
1.0378627770057882 1.0973029911207264
0.5482981650684138 0.5833319243532984
1.3604376477956943 1.543342816482762
1.5086851560108636 1.4143012023041
1.5082136337439624 1.4801353000751045
1.4017465036443533 1.836559397799126
1.4449807669885393 1.1065805826198594
1.7959232318582277 1.6937129686577836
1.5811001038157186 1.3363261427996378
1.6843601050046582 1.3565762399457082
1.3536339484299842 1.3650320329477024
1.3648147249715064 1.0319581001458342
1.6030993852353908 1.5845604953683772
0.8918238534655848 1.20610644034319
1.342844579113956 1.16559313362271
1.879686247021226 1.3976185837623507
1.3837243232686394 1.4954157104756534
2.050843133993252 1.6353848936059339
1.8032232984742054 1.3690627498897792
2.1101053717759966 1.6339849333877914
1.9834300654237944 1.5966479404977947
1.215957211554274 1.2042552096915748
1.0987764832918345 1.7195406941523728
1.6781572378124983 0.839357432624694
1.5212187214915662 0.9595976095740613
1.9277560537857714 1.32629014934889
1.7716656700688342 1.4544883472780965
1.0380852858236498 1.5896268275136873
1.7331577993256877 1.4049608335508685
1.9410889740132278 1.6550881161889475
1.723911381623115 1.6354896010560522
1.1796491048244497 1.5201684574378942
1.5862542141149163 1.0777276603631534
1.337115236655812 1.5450631297695432
1.562412461162494 1.916242597985514
1.0622367423776249 1.3008190433923483
1.7320682885647924 1.67083619333413
1.5780468127946727 1.3928875002686432
1.2387096474801775 1.2751965504648048
1.055659256057793 1.068803384961182
1.018272169245087 0.9865332833252014
1.1126274627086443 1.0904552150226703
1.3960851021474507 1.697994055378808
1.35500191144871 1.515324717783379
1.9530411364481712 1.6789048477664674
1.477723027645477 1.7120921289555604
1.7215702791216312 1.4324285243375237
1.0665875307020594 1.6083395257040802
1.9805703878068743 1.4694838886456967
1.202574586719119 1.3336201748447314
1.465994896918843 1.629122777100815
1.2900371262042745 1.1413943763690917
1.299880754807808 1.1434185297300292
1.2164605331485274 1.228851769273232
1.139930755181942 1.301603355864825
1.3056714874613564 1.6008514157652678
1.598483598861673 0.8967504274373481
1.0406871985941262 1.6297562082734565
1.4083787562553443 1.206650879604267
1.4632050459723944 1.3125749546763121
1.950771085903076 1.7978856749111363
1.628711461429692 1.1270477411681945
1.371640889753958 1.3803674415471268
1.675133949017588 1.12791939569849
1.1178788347090491 1.2974962413977187
1.9007100241069805 1.4156659710102948
1.7972853094900516 1.3150020381921108
1.1878557580710496 2.0682831808639754
1.3537218730545455 1.0129601317705015
1.7200849862644012 1.8798511405609564
2.309789373286791 1.9111566755183271
1.5797828476586329 1.4568595664127157
1.4383662209583925 0.8897327520684171
1.1034958084276423 1.0332010743405895
1.6888180894568596 1.5938971332492777
1.3370441358204799 1.5831669051658142
1.1109139796580805 1.1948076342597884
1.069819151221939 0.9647570020831286
1.443518676946416 1.3151738042053491
1.0493157350235582 1.3255230482316014
1.0468703402415902 1.2919296182768478
1.7166555680883104 1.1774534672890498
1.1382120999246712 1.414660355262252
1.271116310544247 1.3737831659070752
1.3963869127689303 0.9868829453037455
1.4288823143321152 1.383902948228536
1.7284408842538412 1.2202027065426269
1.1668309151666296 1.5234518019402468
1.6288550104073025 1.4563336316945599
1.7077689842282602 1.5857231907128935
1.7919113577074286 1.4033885499758245
1.195005162409257 1.3738454538809257
1.6654079600753198 1.69558635211497
1.1424859507443403 1.0899791238569145
1.4133849842936073 1.6740359230706983
1.696133482160573 1.49942606985163
1.4142184467064383 1.330342008342558
1.7584660692601726 1.0111287022508435
1.1856453949257941 2.306961177066473
1.5895406822702058 1.0098189189796456
1.8545221219598926 1.1445602432520103
1.6088434309352364 1.0751349750571888
1.2369531125048876 0.933447447438763
1.4427929038510645 1.255500163749238
1.2382217862829206 1.4666939651175408
1.9470283800427859 0.9910076487098847
2.0926411899161956 1.2252157719603414
2.2163901943951263 1.1907551822799876
1.829356708639851 1.3898415576522836
2.1719382761921975 1.4921802786861618
1.8451829715841896 1.5933002305637232
1.1914385731872028 1.3493095982826115
1.315037097237151 1.5118663914679769
1.4269114266855982 1.5138972129300419
1.7614025919902503 1.520619420796808
-0.562070569588365 -1.5823297023905116
0.5069571875145696 -1.308018620605103
0.05751853911051197 -2.3930741040309855
-0.008847921954582283 -0.8172900130877724
-0.4488527030407291 -1.2210027681997877
-0.7351390545036627 -1.3645452991992288
-0.3237507091667175 -1.5822367188098732
-0.5113623164202251 -1.7626870602180755
-0.26057353807185 -0.7554837456440354
-1.170420892105037 -1.7463231690966645
-1.5182997633636934 -1.7494827995135325
-0.8632565353474273 -1.831195242130922
0.8268752594459329 -1.8694874964606047
-0.8507281550320547 -1.2934311770186628
-0.07898747490899216 -1.8032193219780452
-1.144925034508542 -1.501810841220155
-0.5269995845611313 -1.524161277279927
-0.35960262140098026 -1.2195412294012018
-0.28843805392746363 -1.8507981020040587
-1.042059689928513 -1.7669114581688692
-0.3603438240903671 -1.838492332639026
-0.06406251456292467 -1.8062614544658566
-0.3166781892026438 -0.0533111253314873
-0.8071351817242167 -1.3400364985862456
-0.7367799408026776 -1.1120030506628407
-0.0619961695287245 -0.8360243958059229
-1.252686701615704 -1.3591080567724676
-0.24134095574615944 -1.8486527896389375
-0.3418802198424815 -2.1381714508352054
-0.10164700243279523 -1.9223213776909158
0.24738444578621688 -1.7467986615475886
-1.0552884233925113 -0.6922285030495077
0.06815302575650944 -1.244788274620915
-0.7491070739153773 -0.7360507954695484
-0.3738997239679308 -1.5008259413010685
-0.9195777802414603 -2.2522488838301693
-0.015690966202676904 -0.6323426836086611
0.11650048595353213 -1.975598852548416
-0.27732229129252545 -1.6096503041703336
-0.16967704602710093 -1.8206682853663592
0.4824210418813375 -0.9649212858182642
-0.645257774487756 -1.712357806663919
-0.6636893536338682 -1.5374489958514193
0.20058083586179876 -1.096668720582222
-0.8735690127370284 -1.817478888947434
-0.8906888694701358 -1.6605004130639227
0.130741928680132 -1.469213816286232
-0.7070558379694247 -1.6682620592124782
-0.5646603728456365 -1.2228241027104674
-0.45046264451106893 -1.8449679248246738
1.026672179236197 -1.1423309994565463
-0.8259839845366848 -1.2214941055116997
-0.38616781790813204 -1.828594131321208
-0.40407077688010484 -2.1392189856384665
-0.45163306329289066 -0.7464237297990395
-0.3661265471043052 -1.900498607542459
-1.1441126009536435 -1.4154881581892194
-0.7330506481707083 -1.093116841179513
-0.7568184553378191 -2.417264638313134
0.09454964189125892 -1.4182069320961561
-0.7478884850209108 -1.664139486445377
1.2375129930298554 -1.8161517666629914
-0.2647338490942637 -1.4744583339598247
-0.7117764246373877 -1.342032999240909
0.18617876260652633 -1.016866283763572
0.2788707635731401 -1.0371149274987381
-0.10378459042735633 -1.2494655427328154
0.17914445210017094 -2.2281029269939396
-0.7169514557531675 -2.054892488696057
-0.8681529952004923 -1.6429933001283648
-0.07410313378973982 -2.075202036805348
0.058199286834401454 -0.9025079042676567
-0.5215561791424149 -1.3509421804156885
-0.6338226305247032 -2.3346493560602433
-0.8608364803460795 -1.0499937545026763
-0.17290625111754448 -1.6672367298142674
0.54821761338652 -1.883960701007243
-1.5579767838472298 -1.8287335264193392
0.2900763239412921 -1.7386583506300577
-0.6419648263421316 -1.5612557307603092
-0.35645684279744794 -1.1622752433348684
-0.618761341119529 -1.2625657196782383
-0.8044028188379183 -1.1222128318967903
0.19376852737885353 -0.48311624436978606
-0.1727956872403468 -1.6818437962307997
-0.04505365076383955 -1.72609509844742
-0.36723617302374656 -1.8017197613495985
-0.138199632168525 -2.1467688259665483
0.3387801241263756 -1.7224863907038825
-0.2939612284695732 -1.4886864465745182
-0.8899016859035673 -0.8699608471098079
-0.18805542940008987 -2.06494940230783
0.359982308220013 -1.895230396766448
0.21985589508735892 -1.8332556588068678
-0.4965096987669304 -2.0275940457083754
-0.9819090163980259 -1.6561185096630613
0.9379945186905406 -1.7969718223933966
0.14921891635538254 -2.046345230309144
0.13670600861984994 -0.8228283291588198
-1.2103989437767617 -1.4669655296001183
-1.0072242948346108 -1.141143866407869
0.4232368242836282 -1.4449911681938563
-0.47945298855933544 -1.996338975525114
0.0033078900564675884 -1.903259041117733
-0.4467095243977245 -1.796818178117873
-1.0938749255155265 -1.1348073605010844
0.07456331784611014 -0.9800101613996156
-0.39144688749868367 -1.833092001537627
0.312132358676283 -1.861906120593386
1.0107404124193273 -1.4054988783943103
-0.7150078870855747 -1.5820485540694496
0.21456278361496905 -1.9099386308631976
0.5875189258393902 -1.3910066969415056
-0.6064906130959702 -2.1453574061236855
-0.3863989102076255 -1.2457299833553923
0.8688711799501972 -2.047846078256621
-0.7257311361099688 -1.5791077536776479
-0.30515678821525327 -0.9817149160472624
-0.48458770738342033 -1.6727667812954348
-0.3654741549079483 -1.9287939337178954
-0.03876305346633946 -0.7713365414642896
-1.763306641579617 -2.241749880073047
-1.2650633866208858 -1.842211230502633
0.12378821708604071 -1.3604273348515685
-0.06526248889741049 -1.6630286419029892
-1.1811625611431882 -1.7868370354287204
-1.166006333905551 -1.5953813345539165
-0.16304615263208674 -1.0662224139193088
-0.9226410295667985 -2.5396477455955
0.27789071431339807 -1.4650158437555716
0.07744587304578093 -1.653012832095065
0.2698066366915798 -1.7678590001826262
0.18035955469817355 -2.091065028214966
-0.7424755135753426 -1.231908656072737
0.7943405731411622 -2.866717459745078
0.1565607355774643 -1.6145922151364418
0.6669322788900888 -1.5846433720581323
-0.5459653681700801 -1.890712317772704
0.30195169716803527 -2.1829470566358324
-0.6805792178373895 -1.7300285038240732
1.106334970740773 -0.848909365050463
-0.28260374280958284 -1.8605054873913915
0.03589805484899111 -1.8916502711744938
0.8327154842147259 -1.6030217525349326
-0.30742011316348317 -1.0192832174712116
-0.05892213519912637 -1.8175143203900035
-0.4042550377987996 -1.6500930015964352
-0.822186388475663 -1.9950729068585213
0.026403638277345598 -0.9067815802082222
-0.1459060646012486 -2.0433028206870207
0.12358146987805718 -0.9537565848205289
0.5305963039819729 -1.6536587820567226
0.27313549862527375 -1.1536158702515484
-1.002829319720084 -1.2503761928559507
-1.040290167867559 -1.2955984524866526
-0.3994801387918284 -1.2987114561223085
-0.7120869435413798 -0.9878723626344644
-0.010541288864767406 -1.2396732846705127
-0.8591359277549233 -1.154533521145968
-0.7455636400616512 -0.9289626390663455
0.43101986677879134 -1.3204524851505197
-0.3944133119205762 -2.1955554067481775
-0.798964361363833 -1.4320826245111071
-0.16080695594433522 -2.237111850303884
-0.6443248102369475 -1.453626461527733
-0.35389048733293865 -1.8822888299263867
-0.20607779255414255 -1.2985302788198365
-0.5113437185598175 -1.8228645602052604
-0.7684225062829773 -2.3359368941198824
0.27479464230745254 -0.757029698829023
1.0429207929275828 -1.2335434415354647
-0.6727793275649503 -1.2594771503466498
-0.21984800936223142 -0.6446409600680296
0.41552735830384346 -0.8585074249749491
-0.17461852890667037 -1.652715522423161
0.7562364218506575 -1.3318128640378242
-1.1132448063973421 -2.540124540184534
-0.8134671569190584 -1.4732762368837067
-0.8976393850863619 -1.725511468586451
-0.12678177693162457 -1.4642765492143535
-0.8860993337334114 -1.517617613398136
-0.05793787476346457 -1.8035140409648394
-0.48122959069354 -2.1690140263358444
0.6304146790362796 -1.3458586870664373
-0.2666128662739655 -1.0031158544008871
0.30056003025140543 -1.9326167713500437
-0.7478568076080324 -0.2986786134973185
-0.16592705136186553 -0.4776162747067665
-1.3777635895323534 -0.9367103904168997
-1.1125592112841214 -0.6335018184250691
-0.10826857487846159 -1.6448398094121863
0.5038419461114806 -2.396698380400956
-0.20709760259380738 -1.8755194586585417
0.6807292667758086 -1.3103961693925967
-0.016352443775808023 -1.7093752237390154
-1.3553261800448966 -1.567547729217255
0.1060768242494281 -1.483840193826566
-0.145756382794703 -1.7486615053000243
-0.5576324141325005 -1.8251437943218687
0.2682138110185891 -2.1693241144223028
-0.3867200292620896 -2.278105845395419
-0.7412501347912341 -1.9253937379302366
-0.7376033112218533 -1.106925017545925
-1.1881333319337335 -1.4879210844147848
-1.0921443459924072 -1.8092482285534754
-0.04818202994257653 -1.6533036733162698
0.5658331889248367 -1.3368433495288485
-0.6159370915896699 -1.8001636334578048
-0.753308210136216 -1.2728068580423635
-0.15084688862430098 -1.599015272570201
0.4675083731579056 -0.8386392365889526
-1.5237064193611487 -1.2031617954295026
-0.29280191135398626 -1.6889716544280453
0.5565805823164308 -1.497409505048955
-0.20795007390354298 -1.6283615311971056
0.41336569159813386 -1.112491074481245
-0.013114778575140318 -1.8087661278140275
-0.3695479911394436 -1.0426374746584224
-0.6005821714795399 -1.6170114363861623
0.20018119112893396 -1.8069763819043905
-0.3731864051947818 -1.3888370055984107
0.19513133201839417 -2.3321297654905244
0.3487285338026216 -1.6004249249339582
-0.2102681016105794 -1.6999969552097363
-0.8712037166796546 -1.181854441336003
-0.1294771846851372 -1.4029973838017424
-1.3850905550364314 -0.8022371446989158
-0.16644199694975798 -1.279977124463953
-0.429654962501246 -2.433868178629626
-0.48057469139903053 -1.4037478945451292
-1.3617862613759795 -1.4288073766915583
-1.185107094486994 -1.844640946246761
0.14192899695579875 -1.851992435111957
-0.5570896896108877 -1.2375787830411558
-1.1553446982178999 -1.7265167749859274
-0.7826026966251527 -1.548688336095695
-0.5088922367374615 -2.021680613798552
0.17857567391597395 -1.8681762819095917
-0.8264673727674683 -1.6193387124026284
-0.0770563091614358 -1.653111711123086
-0.1268011239520312 -0.9218170551156228
-1.1852337482390154 -2.0944100969093267
-0.6345924272631073 -2.0763178659883845
-0.23396166345437114 -1.559095793556462
-0.4913351764029127 -1.7969071274870443
0.21734912034490084 -1.9409696443320006
0.15937386743580484 -1.0362173819364164
-0.5719311784964807 -1.7834800067308856
-0.35514255568533737 -1.082118604114
0.11117450078142471 -1.30973461980444
0.7886247792319564 -1.513512830716135
-0.13529239768314671 -2.0060240578253747
-0.13632892441823014 -1.8386998831665444
-0.6592322512220797 -1.2615682695589792
0.1591935401080049 -2.6018193505603167
-0.09403197383404321 -1.5262051305146591
0.04424266805528565 -1.6997572218360946
0.023882120955105723 -1.3437677627593623
-0.662146592539543 -1.8558926076294455
-0.27521451173695216 -2.2301321551341546
-0.48349018550679734 -0.6242768877956669
-1.7798839692912423 -1.6251605144855394
0.03454260712143947 -0.9836059566089796
-0.32433977510654827 -1.907218319215915
-0.4177325811937106 -2.071011969743
-0.7200211848695959 -1.651577506032424
-0.7460930409782203 -1.9411680959827184
-0.6432485138795312 -1.3749442495699151
-0.3895429207632366 -2.14943139771275
-1.7860757664378148 -1.5087026476870036
-0.9297435134714954 -1.686227704175709
1.0615008604683647 -1.5907232958995572
-0.48794036675850744 -2.6025199100048226
-0.6598752811370501 -1.1089576516543949
-0.2559651474675715 -1.4750119380181146
-0.6935098280760504 -1.5926022118211391
-0.5485536489786935 -1.487727637267805
-0.6367150031365231 -1.751023749919884
-0.21988673041146273 -2.0556741246413703
0.9019192495129914 -1.2721933488165542
-0.10770180129207901 -1.474781824538313
-0.7235309905589294 -1.1212482613807153
-1.0643598239991543 -1.9330491346473577
-0.46649675249464323 -1.9551888715299528
-0.30881239876634686 -1.6638549371163882
-1.6550473751060886 -2.2909112782203174
-0.5761512134303198 -0.8547044741601783
-0.4603599350855816 -2.856564678234212
-2.10649465158191 -1.8793665705110314
0.1734233424008812 -0.8622821289911162
0.8937717850302203 3.490394858968119
1.0863998417612801 3.624608892928964
0.568507174100758 3.6788136653252517
0.9937236402400311 3.0085393931753766
1.0933460288883037 3.6656367674963612
0.6025806417324222 3.4891111362336544
1.008707924170762 2.5714085901981556
0.4532953353008342 3.5105057392513155
0.8965147443581148 3.4295200666057593
0.8492948094337054 4.123997245633885
1.2307989603870202 3.359631940517635
0.6051937531839221 2.6524117473424194
0.7715434092062308 2.57995907208859
0.7922270222728098 3.9590872327902122
0.7265331115367913 3.754889956884536
0.9797768539112942 3.763480972793433
1.6641632467659537 2.946420614711767
0.5038350755172736 4.0860241510851045
0.5821150591205178 3.0242958894252876
1.1250332863624077 3.2281441651459666
1.4652211683808547 2.956160317417338
0.9306011794917003 2.898239859822954
0.8290220848907036 3.2510660317270355
0.5396471016650383 2.8887369756984413
1.1647069158913799 3.30785382782771
0.8187034340241757 3.1225345957529465
0.8809898397153825 2.9541123491389674
0.9687631171335215 3.6533858515869126
1.4703627275205744 3.324176772599336
0.7827088244730873 3.0733042524112135
0.5464450463202056 3.4306166403575347
1.0644731083164058 3.151441087862403
1.0341689081848648 3.372369130641002
0.3614308956221395 3.6862579125803894
0.8737905444288382 2.6097666275839306
0.5357065475449634 3.4334804226219693
0.6780559320152879 3.367129960326667
0.28686756160977867 3.2277141762007915
0.7516025761033427 3.866174501341008
1.1629772364756703 2.932362677407844
0.7725642539416869 2.7024422532429972
0.8251326500976728 2.925711951373379
0.7147029555433881 3.9514751810701467
0.8421054746066376 3.5122819571298933
1.3454463357158826 2.345046895253705
1.0572911549430992 2.5345611239752888
0.3848224389149739 3.221558909643995
1.0969967189177456 3.5049950223774506
0.6474461703897297 3.453693339368243
0.44260115999929583 2.317486824779202
0.8635430761904417 2.9653565801252975
0.454554547667112 3.2936007068609325
0.8154936812132275 3.13379931126166
0.682354913753312 3.193441059657146
0.7097114519684178 2.772154910916777
0.6533222432327312 3.4393473183623744
1.5760548542808666 3.6724095562954067
0.8701621588130979 3.2919609783944743
1.0333458907209117 3.5809779909064234
0.6648893580418448 4.014731388309551
0.9600293084031842 3.2090246657398467
1.016022673703001 3.215675619782836
0.8565587215436794 3.484433137523102
1.1741758820645554 3.502600591088308
1.0175018911409919 2.8539003126996563
1.0065953217156833 3.4037716699287843
0.46123333360911445 2.9153575687521336
1.0520197127957118 3.425108260695622
0.537017608492862 3.587362503211308
1.1138754010235032 3.4745621456532008
1.0462296658668986 3.4238325495942883
0.7947337952213668 3.7389011328502777
0.9355323701298724 3.832739054734757
0.6181877935334915 3.4894536860089866
1.082443915132911 3.502914631189656
0.8617483994550799 3.3610767699815995
0.8187048021924669 3.476976266924503
0.6185662172017345 2.969325161312782
0.9522156646434338 3.2197918072143485
0.9676670890270703 3.251816085566851
0.8956846209296722 3.4867466513107273
0.63324968038224 3.8181596390012187
0.7503314073427424 2.863848376857061
1.2391400949159481 3.3570759180448957
1.4940388293591518 3.1787685341581415
0.7715699453630248 3.9893099605410187
0.707468918008938 3.3748955378931687
1.0225236258578183 3.8001909809000205
0.652811682013392 4.152911925242956
1.003383765055941 3.1575785225431807
0.7631394563037893 3.0399844841634245
1.2753758030756361 2.4891917924717353
0.5854459610444505 3.5517663263681425
1.0169931510889434 2.9446457810857005
0.6646729682628034 3.4805388856872663
1.1892845843429458 3.1242162284041064
0.27259429769915555 3.535516780009287
0.39607733804822354 3.5815924763131335
1.3331811856374323 3.386579399928145
0.6070700715159305 3.693711394145346
1.2706875629022572 3.188779106341837
1.1763564388541947 3.8975622908686147
0.1497518309485426 3.2295557577571157
0.8970830724780017 3.2750177181654476
0.8800816010098814 4.049624210790523
0.5799003183590956 3.7282233261614697
0.9005301568670516 3.6391995223996547
1.241003311673861 2.7763835276884716
1.0480293679180999 2.8207949412824878
0.7729451572525035 3.584697937515055
0.8212776166336322 4.004622300632224
1.4457363561637984 3.4618430183829307
0.701317522106698 2.8841858263888587
0.6978353913108831 3.428255456952513
0.579017902629765 3.3098067687992887
0.5874020441347327 2.682566023701708
0.49532388816686457 3.4316870065019214
0.20816869056936205 3.9344076003468604
0.7416334911885305 3.70434734559799
1.0329105683720874 2.6165074258114114
1.070734775989394 2.768834389156898
0.8481677141795675 4.2696367816948895
1.1930324758679989 2.946965673664543
0.7070664575554536 2.8984545985432293
0.13092735378107978 3.000698539631631
0.5601578841028567 3.785976251886152
0.709122741339871 2.9954155515312277
0.9639831149421705 3.2564542207070257
0.21285994734471647 2.971653824711011
0.6565605643763684 3.223574741810011
1.1975240191416996 3.5203132425717882
0.8621785535330699 3.651709255212743
0.9376493205110332 2.533458890789483
0.8185735960320215 4.0402957889446025
0.6136194323059274 3.9498927581712957
0.8128686907659555 3.0993506291181405
0.8958766049033156 3.6019984413662813
0.4893360626466882 3.4955673756522354
1.1359709659591588 2.7194964166719005
0.8580918336444661 3.2028469611311587
0.723557777422178 3.772034087459814
0.9077771743261075 3.0351422356116955
0.9968683926666686 4.243850389124556
0.49815005296527914 2.983037841632126
0.9951407990926369 3.5362850482827533
1.4494534143799225 3.5057840520409247
0.918864544106434 3.4173166102700576
0.7598291865863818 3.3191809935951087
0.8270752382610403 3.2888448105785857
0.9164052756050289 3.0402711140185015
0.33097284633314494 4.252857295980675
0.5134961522685875 2.9181074817762207
0.8649515902037362 3.3255419465712928
0.8634228328143344 3.145827045513882
0.8655277931781059 3.3859663970067477
1.0720453088534871 2.780812897037629
1.013622850097452 3.6031475830327766
0.7369951049542002 3.749705707017835
0.5242585672044774 3.508011903504071
1.1289204615370891 3.010727374752046
1.0206150361396855 3.492752800137725
0.8930228053442977 2.9144673427123418
0.7822642740978727 3.0432034936319203
0.7390740640250638 3.6418698235760014
1.0253922904729451 3.8444826430247985
0.9721855081103412 2.797846012892547
1.1862798960986012 3.3406733692681114
0.9553144040418848 3.041509061840353
0.9172784497889098 3.08367027518881
0.9421653021081521 2.9005639904175666
0.9671491604193985 3.0379759346458446
1.007084400985608 3.5290546221607335
1.2130646375096092 2.3820003122330613
0.9642552967849973 3.0449787085874256
0.8971663007235136 3.0108484419351007
0.7027631575987272 3.2148546663840523
1.1831970723557281 2.8905228417640854
1.3230144858005433 2.526916976697391
1.028220850786983 3.8843343107065342
0.8735420244577402 3.37212432397426
0.9313834097544029 3.881265432594212
0.7990652582615853 3.322124674185422
1.1770228944272236 2.998374635617122
0.36856473141822094 2.9359479832829862
1.116105978524768 3.0200641779311606
0.2097439158887745 3.314874546364512
0.7339657817597869 3.3436365033756075
0.4698633162255199 3.0209962545348343
0.9870559049461446 3.5746019055529987
1.1271699226122935 3.058996875788406
0.8655603365880926 2.9078294693936018
0.7194808949932491 2.565221926694265
0.8673585368876997 3.264480177979118
0.8388328589932114 3.4156111148542037
0.8655876819215357 2.8875142311569375
1.0482079012775825 3.4919702271487085
1.18619738800641 3.1901388421516192
0.9275566661680473 3.1859299871147133
0.8360750472150886 3.260491791211555
0.44707330393363853 3.8341516352273657
0.9737216083730986 2.698834973161559
1.141027112569547 3.2560886595392833
1.3923906241207646 3.9208099148837916
0.3968879522439117 3.6470819448991274
0.7479833184702429 3.203624010730277
1.385856457377286 2.7227752828633776
1.1757592615310088 3.0978179620068955
1.0814462330082975 3.0669903197358455
0.8163028539550214 2.8666678040696922
0.9361540882894154 3.754011550358139
1.129793282460742 3.036848536792725
1.4729400780138473 3.0961966229403424
1.081141029000535 3.139565391453318
0.7851848017174781 2.9040086743894302
1.369565553072813 3.192142523825166
0.5897277809008623 2.8580011794156026
0.9202352524818137 3.39764755460215
0.7556066085774785 2.5191523245213934
1.0618135618042581 2.580649939741339
0.6647771772952153 3.5867902865401304
0.4927829714424836 3.8069028684838386
0.720336060199668 3.3713808457454095
1.4187133290550564 2.460906499693286
0.48681968553198074 4.250823823329847
0.7482473639046026 3.8325513433666965
0.41471010546485154 3.350323234038672
0.8873902357755176 2.3361432311225157
0.5874537484121883 3.6578154700665713
0.8536745307019435 2.9849585322247445
0.44381918324582936 3.1959242485788435
0.8316463088718038 3.306438416861605
0.8681389393299432 3.275322857147566
1.7348520159399614 3.6927316200145075
0.8180794014320871 3.3748789237628327
0.640515720713822 3.04708445217477
0.6660597642998658 3.9675797931029213
1.1925382481806455 3.301628024809757
0.7047250885207249 3.119229933362009
0.4884057482983475 3.6519670282375163
0.7033302594077204 3.251905816520784
1.0268093571754633 3.273217572675842
0.49170171853439115 2.5770190836257365
1.4898089099667648 3.1146835146110856
0.7960233953244643 2.9576802174906067
0.7429921642882304 3.5794208122135265
0.661136984946872 3.587349113477629
0.8164317368536711 3.510132871924954
0.5528484959781721 3.6864916261292633
1.3498172998045723 3.0940102257440856
0.8069969723965777 2.7706262459694466
1.138889420266832 3.336459340249995
0.9519256748341042 3.1525910209334
0.8941621251356635 2.7041016759980288
0.6797826714211712 3.4220532373964305
1.3063293802500673 2.424942611711672
0.5657807263973343 3.8883189214551988
0.6415391106139843 3.63419975972648
0.9146250519088787 2.4478416476874285
0.9385808377714864 3.319383510526314
0.8972867484822008 3.1860409535886083
0.6144014000213096 3.369290513127483
1.0121868049663238 3.3994060518254745
1.044948683743114 3.26390838838743
1.4366516610606541 3.1873566084086096
1.2572478455932332 3.1713885177726593
0.6366071152270577 3.2368607580331963
0.7174318771298147 2.939335878238987
0.6507814403876915 3.1884688789636204
1.1010292792019636 3.1124006720193993
0.7489525591475067 3.4371595593958073
0.7203306141537089 3.486610710416542
1.5545036343911773 3.0682322651120453
0.4578673328148182 4.051644565976962
0.5512823245486632 3.441764528948036
0.9705103705152117 3.4669351779332978
0.47607490328938806 3.9828497179068627
0.7562561984281523 4.1427660510711295
1.138746623963948 3.2547952047642474
0.7098670506188347 3.8776160127033084
0.7249431341892241 3.6568882249470462
0.680441483269317 2.9826185970438788
1.0424812063931188 3.22845908063405
0.6240981938934635 4.101218996811538
0.9110570548824752 3.529092060187623
0.821124374661935 3.735771745547548
1.033840251609599 4.146623381786943
1.1892793443573937 3.038818528657352
0.4562479807741309 2.9741643631052224
0.5590004666751773 4.097869074061102
0.724753815631246 2.7698976938686477