
########################################## RESULT FINISHED ##########################################
Testing time: 2020-08-18 20:04:43
Epsilon: 0.02
Percentage: 0.5
Number of cluster: Array(5)
Dataset name: cluto-t4-8k
Origin: 8000
DaviesBouldinIndex : 1.0217734396500129
DunnIndex : 0.0032513752261736743
CDbwIndex : 0.006376161330883761
SilhouetteIndex : 0.3258106649664414
** Used Memory:  1340 MB
** Free Memory:  927 MB
** Total Memory: 2267 MB
** Max Memory:   3641 MB
Time elspased (without file logging) in seconds: 88.613733998 seconds
#####################################################################################################

########################################## RESULT FINISHED ##########################################
Testing time: 2020-08-18 20:09:37
Epsilon: 0.02
Percentage: 0.5
Number of cluster: Array(4)
Dataset name: cluto-t4-8k
Origin: 8000
DaviesBouldinIndex : 0.7722353606879098
DunnIndex : 0.007409870174706925
CDbwIndex : 0.005188082576404317
SilhouetteIndex : 0.39069305390509623
** Used Memory:  1319 MB
** Free Memory:  1295 MB
** Total Memory: 2615 MB
** Max Memory:   3641 MB
Time elspased (without file logging) in seconds: 218.07405223 seconds
#####################################################################################################

########################################## RESULT FINISHED ##########################################
Epsilon: 0.001
Percentage: 0.85
Number of cluster: Array(6)
Dataset name: cluto-t4-8k
Origin: 8000
DaviesBouldinIndex : 0.8196441884194227
DunnIndex : 0.007461051128900088
CDbwIndex : 1.0384231197438882
SilhouetteIndex : 0.22980645023013793
** Used Memory:  1036 MB
** Free Memory:  2714 MB
** Total Memory: 3751 MB
** Max Memory:   9102 MB
Time elspased (without file logging) in seconds: 62.029634678 seconds
#####################################################################################################

########################################## RESULT FINISHED ##########################################
Epsilon: 0.005
Percentage: 0.85
Number of cluster: Array(3)
Dataset name: cluto-t4-8k
Origin: 8000
DaviesBouldinIndex : 0.9480980601477457
DunnIndex : 0.012331734195523698
CDbwIndex : 0.4740762518550816
SilhouetteIndex : 0.4074349749375359
** Used Memory:  2551 MB
** Free Memory:  2262 MB
** Total Memory: 4814 MB
** Max Memory:   9102 MB
Time elspased (without file logging) in seconds: 82.336897331 seconds
#####################################################################################################

########################################## RESULT FINISHED ##########################################
Epsilon: 0.01
Percentage: 0.85
Number of cluster: Array(5)
Dataset name: cluto-t4-8k
Origin: 8000
DaviesBouldinIndex : 0.8351916378576119
DunnIndex : 0.006645821221306349
CDbwIndex : 1.0595115886025435
SilhouetteIndex : 0.3507923149497732
** Used Memory:  2675 MB
** Free Memory:  2014 MB
** Total Memory: 4689 MB
** Max Memory:   9102 MB
Time elspased (without file logging) in seconds: 13.936291372 seconds
#####################################################################################################

########################################## RESULT FINISHED ##########################################
Epsilon: 0.015
Percentage: 0.85
Number of cluster: Array(4)
Dataset name: cluto-t4-8k
Origin: 8000
DaviesBouldinIndex : 0.773444817744441
DunnIndex : 0.00614119043039013
CDbwIndex : 0.9833593877049153
SilhouetteIndex : 0.392163479264553
** Used Memory:  2495 MB
** Free Memory:  2164 MB
** Total Memory: 4660 MB
** Max Memory:   9102 MB
Time elspased (without file logging) in seconds: 7.52953419 seconds
#####################################################################################################

########################################## RESULT FINISHED ##########################################
Epsilon: 0.015
Percentage: 0.85
Number of cluster: Array(3)
Dataset name: cluto-t4-8k
Origin: 8000
DaviesBouldinIndex : 0.9465980449657784
DunnIndex : 0.00573217181780547
CDbwIndex : 1.006253835730001
SilhouetteIndex : 0.40749785105398423
** Used Memory:  993 MB
** Free Memory:  3493 MB
** Total Memory: 4487 MB
** Max Memory:   9102 MB
Time elspased (without file logging) in seconds: 4.335042776 seconds
#####################################################################################################

########################################## RESULT FINISHED ##########################################
<<<<<<< HEAD
Testing time: 2020-10-20 10:13:48
=======
Testing time: 2020-10-20 15:21:47
>>>>>>> f8c540947e1f7821a3e29d1b1a7a946c98d88696
Epsilon: 0.02
Percentage: 0.5
Number of cluster: Array(4)
Dataset name: cluto-t4-8k
Origin: 8000
<<<<<<< HEAD
DaviesBouldinIndex : 0.7722738464107696
DunnIndex : 0.006863401497792525
CDbwIndex : 0.006368385366306589
SilhouetteIndex : 0.3926860711962384
** Used Memory:  2532 MB
** Free Memory:  2814 MB
** Total Memory: 5347 MB
** Max Memory:   9102 MB
Time elspased (without file logging) in seconds: 3.148119474 seconds
=======
DaviesBouldinIndex : 0.7734819322719062
DunnIndex : 0.007713276680584982
CDbwIndex : 0.006358887607876313
SilhouetteIndex : 0.395746874777137
** Used Memory:  725 MB
** Free Memory:  293 MB
** Total Memory: 1019 MB
** Max Memory:   1019 MB
Time elspased (without file logging) in seconds: 3.345497002 seconds
#####################################################################################################

########################################## RESULT FINISHED ##########################################
Testing time: 2020-10-20 15:23:01
Epsilon: 0.02
Percentage: 0.5
Number of cluster: Array(6)
Dataset name: cluto-t4-8k
Origin: 8000
DaviesBouldinIndex : 1.0818608083585215
DunnIndex : 0.008279127714236965
CDbwIndex : 0.006718647054417708
SilhouetteIndex : 0.29547958061017854
** Used Memory:  524 MB
** Free Memory:  492 MB
** Total Memory: 1017 MB
** Max Memory:   1017 MB
Time elspased (without file logging) in seconds: 7.753642741 seconds
>>>>>>> f8c540947e1f7821a3e29d1b1a7a946c98d88696
#####################################################################################################

########################################## RESULT FINISHED ##########################################
Epsilon: 0.015
Percentage: 0.85
Number of cluster: Array(3)
Dataset name: cluto-t4-8k
Origin: 8000
DaviesBouldinIndex : 0.9511375372188787
DunnIndex : 0.003452566536639587
CDbwIndex : 1.0088979392888568
SilhouetteIndex : 0.4067549204838496
** Used Memory:  3187 MB
** Free Memory:  3641 MB
** Total Memory: 6829 MB
** Max Memory:   9102 MB
Time elspased (without file logging) in seconds: 2.405258925 seconds
#####################################################################################################
